…
}

df_mu = 
  expand_grid(n = 30,
    mu = 0,
    sigma = 5,
    dataset = 1:5000) %>% 
  mutate( estimates_df = 
      map(.x = mu, ~est_mean(mu = .x))) %>% 
  unnest(estimates_df)

df_mu
```

    ## # A tibble: 5,000 × 6
    ##        n    mu sigma dataset mu_mean p_value
    ##    <dbl> <dbl> <dbl>   <int>   <dbl>   <dbl>
    ##  1    30     0     5       1 -0.652   0.491 
    ##  2    30     0     5       2  1.40    0.125 
    ##  3    30     0     5       3  0.209   0.831 
    ##  4    30     0     5       4  0.660   0.422 
    ##  5    30     0     5       5 -0.796   0.374 
    ##  6    30     0     5       6  0.629   0.503 
    ##  7    30     0     5       7 -0.886   0.229 
    ##  8    30     0     5       8 -0.0468  0.958 
    ##  9    30     0     5       9 -1.99    0.0273
    ## 10    30     0     5      10  0.109   0.919 
    ## # … with 4,990 more rows
…
all_mu
```

    ## # A tibble: 30,000 × 6
    ##        n    mu sigma dataset mu_mean p_value
    ##    <dbl> <dbl> <dbl>   <int>   <dbl>   <dbl>
    ##  1    30     1     5       1   1.10  0.250  
    ##  2    30     1     5       2   0.459 0.593  
    ##  3    30     1     5       3   1.73  0.0493 
    ##  4    30     1     5       4   0.542 0.544  
    ##  5    30     1     5       5   0.280 0.731  
    ##  6    30     1     5       6   0.263 0.776  
    ##  7    30     1     5       7   1.24  0.104  
    ##  8    30     1     5       8   3.17  0.00673
    ##  9    30     1     5       9   0.904 0.313  
    ## 10    30     1     5      10   2.62  0.00714
    ## # … with 29,990 more rows
…
